     
                        
    THE TEXAS CONSTITUTION
    PREAMBLE
    Humbly invoking the blessings of Almighty God, the people of the State of Texas, do ordain and establish this Constitution. 
                    
